<?xml version="1.0" encoding="iso-8859-1"?>
<!-- Generator: Adobe Illustrator 19.0.0, SVG Export Plug-In . SVG Version: 6.00 Build 0)  -->
<svg version="1.1" id="Capa_1" xmlns="http://www.w3.org/2000/svg" xmlns:xlink="http://www.w3.org/1999/xlink" x="0px" y="0px"
	 viewBox="0 0 477.847 477.847" style="enable-background:new 0 0 477.847 477.847;" xml:space="preserve">
<g>
	<g>
		<path fill="#fff" d="M315.723,102.4c-6.898,0.029-13.79,0.405-20.651,1.126C282.597,36.625,236.039,0,162.123,0
			C74.077,0,25.59,50.722,25.59,142.814c0,100.096,119.296,222.413,124.365,227.533c3.205,3.27,7.59,5.115,12.169,5.12
			c4.579-0.005,8.963-1.85,12.169-5.12c0.683-0.7,13.312-13.653,30.293-34.133c26.531,49.865,59.843,95.813,98.987,136.533
			c6.609,6.721,17.415,6.811,24.135,0.202c0.068-0.067,0.135-0.134,0.202-0.202c5.052-5.12,124.348-127.437,124.348-227.533
			C452.257,153.122,403.77,102.4,315.723,102.4z M162.123,204.8c-37.703,0-68.267-30.564-68.267-68.267
			c0-37.703,30.564-68.267,68.267-68.267s68.267,30.564,68.267,68.267C230.39,174.236,199.826,204.8,162.123,204.8z M315.723,307.2
			c-37.703,0-68.267-30.564-68.267-68.267s30.564-68.267,68.267-68.267s68.267,30.564,68.267,68.267S353.426,307.2,315.723,307.2z"
			/>
	</g>
</g>
<g>
</g>
<g>
</g>
<g>
</g>
<g>
</g>
<g>
</g>
<g>
</g>
<g>
</g>
<g>
</g>
<g>
</g>
<g>
</g>
<g>
</g>
<g>
</g>
<g>
</g>
<g>
</g>
<g>
</g>
</svg>
